{
  "City": [

    {
      "CityId": 1,
      "CountryId": 1,
      "CityName": "Jakarta"
    },

    {
      "CityId": 1,
      "CountryId": 1,
      "CityName": "Jakarta"
    },
    {
      "CityId": 2,
      "CountryId": 2,
      "CityName": "Kuala Lumpur"
    },
    {
      "CityId": 3,
      "CountryId": 3,
      "CityName": "Bangkok"
    },
    {
      "CityId": 4,
      "CountryId": 4,
      "CityName": "Singapore"
    },
    {
      "CityId": 5,
      "CountryId": 5,
      "CityName": "Tokyo"
    },
    {
      "CityId": 6,
      "CountryId": 6,
      "CityName": "Seoul"
    },
    {
      "CityId": 7,
      "CountryId": 7,
      "CityName": "Madrid"
    }
  ]
}
